<?xml version="1.0" encoding="utf-8"?>
<!-- Generator: Adobe Illustrator 18.1.1, SVG Export Plug-In . SVG Version: 6.00 Build 0)  -->
<svg version="1.1" id="Слой_1" xmlns="http://www.w3.org/2000/svg" xmlns:xlink="http://www.w3.org/1999/xlink" x="0px" y="0px"
	 viewBox="0 0 122.5 94" enable-background="new 0 0 122.5 94" xml:space="preserve">
<g>
	<g>
		<path fill="#FFFFFF" d="M31.2,27.9c-0.8,0-1.5-0.7-1.5-1.5c0-0.8,0.7-1.5,1.5-1.5c3.1,0,6.2-1,8.5-2.6c2.2-1.6,3.9-4,4.5-6.8
			c0.6-2.8,0.1-5.6-1.4-7.8c-2-2.8-6-4.6-10.6-4.8C26,2.8,16.3,6,13.9,12.6c-1.1,3,1.8,6.1,2.7,7c0.6,0.6,0.6,1.5,0,2.1
			c-0.6,0.6-1.5,0.6-2.1,0c-3.3-3.2-4.6-7-3.4-10.2C14,3.6,24.8,0,31.7,0c0.2,0,0.4,0,0.6,0c5.6,0.2,10.4,2.4,13,6.1
			c2,2.9,2.7,6.5,1.9,10.1c-0.8,3.5-2.8,6.6-5.7,8.6C38.6,26.8,34.9,27.9,31.2,27.9C31.2,27.9,31.2,27.9,31.2,27.9z"/>
	</g>
	<g>
		<path fill="#FFFFFF" d="M8.3,54.6c-0.4,0-0.8-0.2-1.1-0.5c-5.3-6.2-7.7-12.7-7.1-19.5c1-11.8,10.7-19.8,11.1-20.1
			c0.6-0.5,1.6-0.4,2.1,0.2c0.5,0.6,0.4,1.6-0.2,2.1C13,16.8,4,24.4,3.1,34.9c-0.5,5.9,1.6,11.7,6.4,17.3c0.5,0.6,0.5,1.6-0.2,2.1
			C9,54.5,8.7,54.6,8.3,54.6z"/>
	</g>
	<g>
		<path fill="#FFFFFF" d="M27,81.3c-7.8,0-19.7-5.9-21.6-18.9c-0.7-4.6,0.1-8,2.2-10.1c2.8-2.8,6.8-2.1,7-2.1
			c0.8,0.1,1.4,0.9,1.2,1.7c-0.1,0.8-0.9,1.4-1.7,1.2c0,0-2.7-0.4-4.4,1.3c-1.4,1.4-1.9,4-1.3,7.5C10,73.2,20.2,78.3,27,78.3
			c4.1,0,9.7-1.6,13-5.9c3.4-4.5,3.9-11,1.5-19.5c-1.5-5.5-9.5-5.7-9.6-5.7c-0.8,0-1.4-0.6-1.5-1.3c-0.1-0.8,0.4-1.4,1.1-1.6
			c3.3-0.8,5.5-2.4,6.5-4.7c2.5-5.5-1.8-13.6-1.8-13.7c-0.4-0.7-0.1-1.6,0.6-2c0.7-0.4,1.6-0.1,2,0.6c0.2,0.4,5,9.5,1.9,16.3
			c-0.8,1.8-2.1,3.3-3.7,4.4c2.9,1,6.1,2.9,7.3,7c2.6,9.4,1.9,16.8-2,22.1C38.4,79.4,31.8,81.3,27,81.3z"/>
	</g>
	<g>
		<path fill="#FFFFFF" d="M59.1,40.9c-0.3,0-0.5-0.1-0.7-0.2c-3.3-1.8-12.8-6-17.2-3.6c-0.7,0.4-1.6,0.1-2-0.6
			c-0.4-0.7-0.1-1.6,0.6-2c5.9-3.2,15.9,1.5,19.2,3.1c0.5-0.5,0.7-1,0.8-1.6c0.1-0.7-0.1-1.4-0.4-1.9c-10.9-0.6-16.8-12.5-17-13.1
			c-0.4-0.7,0-1.6,0.7-2c0.7-0.4,1.6,0,2,0.7c0.1,0.1,5.6,11.4,15.2,11.4c0.5,0,0.9,0.2,1.2,0.6c0.2,0.2,1.6,2.2,1.3,4.7
			c-0.2,1.6-1.1,3-2.7,4.2C59.7,40.8,59.4,40.9,59.1,40.9z"/>
	</g>
	<g>
		<path fill="#FFFFFF" d="M41.5,51.2c-0.8,0-1.5-0.6-1.5-1.4c-0.3-8.3,9.7-14.2,10.1-14.5c0.7-0.4,1.6-0.2,2.1,0.5
			c0.4,0.7,0.2,1.6-0.5,2.1c-0.1,0.1-8.8,5.3-8.6,11.8C43,50.4,42.4,51.1,41.5,51.2C41.5,51.2,41.5,51.2,41.5,51.2z"/>
	</g>
	<g>
		<path fill="#FFFFFF" d="M52.1,94c-2.4,0-3.9-0.8-4-0.9c-0.5-0.3-0.8-0.9-0.8-1.5c1.4-9.3,3.8-34.8-2.2-41.3c-1-1-2-1.5-3.4-1.4
			c-0.8,0.1-1.5-0.6-1.6-1.4c-0.1-0.8,0.6-1.5,1.4-1.6c2.3-0.2,4.2,0.6,5.8,2.3c3.5,3.8,5.1,12.4,4.6,25.5
			c-0.3,7.4-1.1,14.3-1.5,17.1c0.8,0.2,2.2,0.3,3.9-0.1c1.3-11.7,3-40.4-3.8-48c-1-1.2-2.2-1.8-3.6-1.8c0,0,0,0,0,0
			c-0.8,0-1.5-0.7-1.5-1.5c0-0.8,0.7-1.5,1.5-1.5c0,0,0,0,0,0c2.3,0,4.2,0.9,5.9,2.8c9.3,10.4,4.6,49.7,4.4,51.3
			c-0.1,0.6-0.5,1-1,1.2C54.7,93.8,53.3,94,52.1,94z"/>
	</g>
	<g>
		<path fill="#FFFFFF" d="M91.3,27.9C91.3,27.9,91.3,27.9,91.3,27.9c-3.7,0-7.4-1.2-10.2-3.1c-2.8-2-4.9-5.1-5.7-8.6
			c-0.8-3.7-0.2-7.3,1.9-10.1c2.5-3.6,7.4-5.9,13-6.1c0.2,0,0.4,0,0.6,0c6.8,0,17.7,3.6,20.6,11.6c1.2,3.2-0.1,7-3.4,10.2
			c-0.6,0.6-1.5,0.6-2.1,0c-0.6-0.6-0.6-1.5,0-2.1c0.9-0.9,3.8-4,2.7-7C106.2,6,96.4,2.8,90.3,3c-4.6,0.1-8.6,1.9-10.6,4.8
			c-1.5,2.2-2,4.9-1.4,7.8c0.6,2.7,2.2,5.2,4.5,6.8c2.3,1.6,5.4,2.6,8.5,2.6c0.8,0,1.5,0.7,1.5,1.5C92.8,27.3,92.1,27.9,91.3,27.9z"
			/>
	</g>
	<g>
		<path fill="#FFFFFF" d="M114.2,54.6c-0.3,0-0.7-0.1-1-0.4c-0.6-0.5-0.7-1.5-0.2-2.1c4.8-5.5,6.9-11.4,6.4-17.3
			c-0.9-10.5-9.9-18-10-18.1c-0.6-0.5-0.7-1.5-0.2-2.1c0.5-0.6,1.5-0.7,2.1-0.2c0.4,0.3,10.1,8.4,11.1,20.1
			c0.6,6.8-1.8,13.3-7.1,19.5C115,54.4,114.6,54.6,114.2,54.6z"/>
	</g>
	<g>
		<path fill="#FFFFFF" d="M95.5,81.3c-4.8,0-11.4-1.9-15.4-7.1c-4-5.2-4.7-12.7-2-22.1c1.1-4,4.4-6,7.3-7c-1.7-1.1-2.9-2.6-3.7-4.4
			c-3.1-6.9,1.7-15.9,1.9-16.3c0.4-0.7,1.3-1,2-0.6c0.7,0.4,1,1.3,0.6,2c0,0.1-4.3,8.2-1.8,13.7c1.1,2.4,3.2,3.9,6.5,4.7
			c0.7,0.2,1.2,0.9,1.1,1.6c-0.1,0.8-0.7,1.3-1.5,1.3c-0.1,0-8,0.2-9.6,5.7c-2.4,8.5-1.8,15,1.5,19.5c3.3,4.4,8.9,5.9,13,5.9
			c6.7,0,17-5.1,18.7-16.3c0.5-3.5,0.1-6.1-1.3-7.5c-1.7-1.7-4.4-1.3-4.5-1.3c-0.8,0.1-1.6-0.4-1.7-1.3c-0.1-0.8,0.4-1.6,1.2-1.7
			c0.2,0,4.2-0.6,7,2.1c2.2,2.1,2.9,5.5,2.2,10.1C115.2,75.4,103.3,81.3,95.5,81.3z"/>
	</g>
	<g>
		<path fill="#FFFFFF" d="M63.4,40.9c-0.3,0-0.6-0.1-0.9-0.3c-1.6-1.2-2.5-2.6-2.7-4.2c-0.3-2.5,1.1-4.5,1.3-4.7
			c0.3-0.4,0.7-0.6,1.2-0.6c9.6,0,15.1-11.3,15.2-11.4c0.4-0.7,1.3-1.1,2-0.7c0.7,0.4,1.1,1.3,0.7,2c-0.3,0.5-6.1,12.5-17,13.1
			c-0.2,0.5-0.5,1.2-0.4,1.9c0.1,0.6,0.4,1.1,0.8,1.6c3.3-1.7,13.3-6.3,19.2-3.1c0.7,0.4,1,1.3,0.6,2c-0.4,0.7-1.3,1-2,0.6
			c-4.5-2.4-14,1.8-17.2,3.6C63.9,40.8,63.6,40.9,63.4,40.9z"/>
	</g>
	<g>
		<path fill="#FFFFFF" d="M81,51.2C81,51.2,81,51.2,81,51.2c-0.9,0-1.5-0.7-1.5-1.6c0.2-6.5-8.5-11.7-8.6-11.8
			c-0.7-0.4-1-1.3-0.5-2.1c0.4-0.7,1.3-1,2.1-0.5c0.4,0.2,10.4,6.2,10.1,14.5C82.5,50.5,81.8,51.2,81,51.2z"/>
	</g>
	<g>
		<path fill="#FFFFFF" d="M70.4,94c-1.2,0-2.6-0.2-4.2-0.8c-0.5-0.2-0.9-0.7-1-1.2c-0.2-1.7-4.9-40.9,4.4-51.3
			c1.6-1.8,3.6-2.8,5.9-2.8c0,0,0,0,0,0c0.8,0,1.5,0.7,1.5,1.5c0,0.8-0.7,1.5-1.5,1.5c0,0,0,0,0,0c-1.4,0-2.6,0.6-3.6,1.8
			c-6.8,7.6-5.1,36.3-3.8,48c1.7,0.5,3.1,0.3,3.9,0.1c-0.4-2.7-1.2-9.6-1.5-17.1C70,60.6,71.6,52,75.1,48.2c1.6-1.7,3.5-2.5,5.8-2.3
			c0.8,0.1,1.4,0.8,1.4,1.6c-0.1,0.8-0.8,1.5-1.6,1.4c-1.4-0.1-2.4,0.3-3.4,1.4c-6,6.5-3.6,32-2.2,41.3c0.1,0.6-0.2,1.2-0.8,1.5
			C74.3,93.2,72.8,94,70.4,94z"/>
	</g>
</g>
</svg>
