<?xml version="1.0" encoding="utf-8"?>
<!-- Generator: Adobe Illustrator 18.1.1, SVG Export Plug-In . SVG Version: 6.00 Build 0)  -->
<svg version="1.1" id="Слой_1" xmlns="http://www.w3.org/2000/svg" xmlns:xlink="http://www.w3.org/1999/xlink" x="0px" y="0px"
	 viewBox="0 0 464.3 40.9" enable-background="new 0 0 464.3 40.9" xml:space="preserve">
<g>
	<g>
		<path fill="#FFFFFF" d="M15,12.2h9.3c3.5,0,4.9-0.7,4.9-1.8c0-1.1-0.8-1.8-3.1-1.8h-9.8c-4,0-8.9,1.2-11.5,2.9L0,3.4
			C1.7,2,8.2,0.6,16.8,0.6H33c9.1,0,12.5,4.2,12.5,9.7v13.4c0,2.3,0.8,4.7,1.8,6.1v0.2H31.4c-0.5-0.9-1.1-2.7-1.4-4h-0.2
			c-1.1,1.3-4.5,4-10.9,4h-6.8C5.3,30.1,0,26.7,0,21C0,15,6.1,12.2,15,12.2z M20.7,22.3h3.1c3.2,0,4.8-0.9,5.5-2.1v-3.3
			c-0.6,0.4-2.1,0.8-4.8,0.8h-3.8c-2.6,0-4.1,1-4.1,2.4C16.7,21.5,18.1,22.3,20.7,22.3z"/>
		<path fill="#FFFFFF" d="M53.8,22.8c5.4-0.2,8-2.1,8.8-5.9l3.2-16.2h37.3v29.5H87.2V8.6h-7.7l-2,9.6c-1.7,7.9-6.5,12.2-19,12.2
			h-4.6V22.8z"/>
		<path fill="#FFFFFF" d="M130.4,9.3h17.4c8.6,0,15,3.5,15,10.4c0,6.9-6.1,10.4-14.7,10.4h-33.6V0.6h15.9V9.3z M130.4,17.3V22h11.9
			c2.8,0,4-0.8,4-2.4c0-1.6-1.4-2.4-4-2.4H130.4z"/>
		<path fill="#FFFFFF" d="M171.2,0.6h34.9C214,0.6,218,3.7,218,8c0,4.2-4,6.7-8,7.2v0.2c5.3,0.4,8.9,3,8.9,7.2
			c0,4.5-3.3,7.4-11.7,7.4h-36V0.6z M187.2,7.6v4.3H199c1.7,0,2.9-0.7,2.9-2.1c0-1.5-1.1-2.2-2.9-2.2H187.2z M187.2,18.8v4.3H199
			c2.3,0,3.3-0.7,3.3-2.2c0-1.5-1.1-2.1-3.3-2.1H187.2z"/>
		<path fill="#FFFFFF" d="M249.3,0.1h2.4c15.4,0,23.6,6.2,23.6,17.1h-32.9c0.6,4,3.3,5.9,9.1,5.9h4.9c5.5,0,9.9-0.9,13.4-2.7
			l5.6,7.1c-3,1.7-11.4,3.2-23.1,3.2h-3.8c-15.2,0-22.8-5.5-22.8-15.3C225.7,6.3,233.6,0.1,249.3,0.1z M242.4,12.8h16.4
			c-0.4-3.3-2.5-5.2-8.3-5.2C245.1,7.5,243,9.4,242.4,12.8z"/>
		<path fill="#FFFFFF" d="M299.5,0.6V4h0.2c3.2-2.3,8.4-4,13.2-4c10.9,0,18.6,6.4,18.6,15.3c0,9-7.9,15.3-18.6,15.3
			c-4.8,0-9.9-1.8-13.2-4.3v14h-15.9V0.6H299.5z M315.6,15.3c0-4.7-3.5-7-8.3-7c-2.8,0-5.6,0.7-7.5,1.7v10.3c1.8,1.4,4.3,2,7.5,2
			C312.2,22.3,315.6,20,315.6,15.3z"/>
		<path fill="#FFFFFF" d="M383.1,0.6l-18.7,31.3c-4.2,6.9-8.4,9-14.5,9h-3.7c-3.9,0-7.3-0.7-10-2.4l4.5-8.1h0.2
			c1.1,1.1,2.8,1.7,5.5,1.7c2.8,0,4.2-0.8,4.2-2c0-0.7-0.4-1.5-1.2-2.7L333.6,0.6h16l9.3,16.8l9.4-16.8H383.1z"/>
		<polygon fill="#FFFFFF" points="440.8,7.8 440.8,0.6 425.9,0.6 419.6,12.5 419.3,12.5 412.4,0.6 389.5,0.6 389.5,30.1 401.6,30.1 
			401.6,11 401.8,11 413,30.1 423.4,30.1 433.3,11 433.5,11 433.5,30.1 448,30.1 448,7.8 		"/>
	</g>
	<rect x="457.1" y="0.6" fill="#FFFFFF" width="7.2" height="7.2"/>
</g>
</svg>
