<?xml version="1.0" encoding="utf-8"?>
<!-- Generator: Adobe Illustrator 18.1.1, SVG Export Plug-In . SVG Version: 6.00 Build 0)  -->
<svg version="1.1" id="Слой_1" xmlns="http://www.w3.org/2000/svg" xmlns:xlink="http://www.w3.org/1999/xlink" x="0px" y="0px"
	 viewBox="0 0 108.4 106.4" enable-background="new 0 0 108.4 106.4" xml:space="preserve">
<g>
	<g>
		<path fill="#282828" d="M30.5,106.4c-0.1,0-0.2,0-0.2,0c-0.3-0.1-8.1-1.3-15.8-5.7C4.1,94.8-0.9,86.2,0.1,75.7
			C0.9,67.1,3.8,61.1,8.7,58c6.1-3.9,14.4-2.8,20.2-0.5c3.2,1.3,6.1,3.1,8.9,4.9c3.5,2.2,6.9,4.3,10.7,5.4c6.2,1.9,10.8-1.4,15-10.6
			c1.6-3.5,2.2-6.8,1.8-9.8c-0.5-3.4-2.4-6.1-4.4-9c-2.1-3-4.3-6-4.9-10c-1.3-8.4,0.5-17.2,5.6-27.7C61.7,0.3,62.2,0,62.8,0
			c1.3,0,13.1,0,16.1,5.8c0.2,0.4,0.2,0.9,0,1.3c-2.3,5.3-5.3,14.8-4.1,18.9c4.8-0.2,9.8,0.2,14.5,1.1l0.1,0
			c4.3,0.8,8.7,1.7,12.1,5.2c2.2,2.3,3.9,5.4,5.1,9.2c5.8,19.4-3.5,42.9-20.2,51.4c-11.8,6-25.7,6.4-38,1.2c-4.6-2-8.7-4.5-12.2-7.5
			c-0.4-0.3-0.9-0.9-1.7-1.6c-2.4-2.4-9.8-9.7-12.8-9.4c-0.3,0-0.5,0.1-0.7,0.5c-0.5,0.8-1.2,2.8-0.3,4.9c0.9,2.2,3.8,5.2,12.2,6.9
			c0.4,0.1,0.7,0.3,0.9,0.6c0.1,0.1,5.7,8.5-2.4,17.4C31.3,106.2,30.9,106.4,30.5,106.4z M18.3,58.4c-2.9,0-5.7,0.6-8,2.1
			c-4,2.6-6.5,7.8-7.2,15.4c-1.9,20.4,22.1,26.3,26.8,27.3c4.8-5.8,2.7-11,1.9-12.6C24.3,89,19.7,86.1,18,82.1c-1.3-3-0.5-6,0.5-7.7
			c0.7-1.1,1.7-1.7,2.9-1.8c4.1-0.5,10,5.1,15.2,10.3c0.7,0.7,1.2,1.2,1.5,1.5c3.2,2.8,7,5.2,11.4,7c11.5,4.9,24.4,4.5,35.5-1.1
			c15.3-7.8,24-30.1,18.7-47.9c-1-3.4-2.5-6-4.4-8c-2.7-2.8-6.5-3.5-10.5-4.3l-0.1,0C84,29,78.8,28.7,74,29c-0.6,0-1.1-0.3-1.4-0.8
			c-3-5.5,1.9-18.1,3.3-21.6C73.7,3.9,67.1,3.1,63.8,3c-4.5,9.5-6.1,17.5-4.9,25.1c0.5,3.3,2.4,5.9,4.4,8.7c2.2,3,4.4,6.2,5,10.3
			c0.5,3.6-0.2,7.4-2,11.4c-3.1,6.7-8.3,15.3-18.6,12.2c-4.2-1.3-7.8-3.5-11.4-5.7c-2.8-1.8-5.5-3.4-8.5-4.6
			C25.1,59.3,21.7,58.4,18.3,58.4z"/>
	</g>
	<g>
		<path fill="#282828" d="M65.8,56.8c-0.7,0-1.4-0.6-1.5-1.3c-0.1-0.8,0.5-1.6,1.3-1.7c7.2-0.9,7.8-4.1,7.8-4.1
			c0.1-0.8,0.8-1.4,1.6-1.3c0.8,0.1,1.4,0.8,1.4,1.6c0,0.2-0.6,5.6-10.4,6.8C65.9,56.8,65.9,56.8,65.8,56.8z"/>
	</g>
	<g>
		<path fill="#282828" d="M70,62.8c-1.6,0-3.7-0.3-6.2-1.2c-0.8-0.3-1.2-1.1-0.9-1.9c0.3-0.8,1.1-1.2,1.9-0.9
			c6.8,2.4,8.8-0.1,8.8-0.1c0.4-0.7,1.4-0.9,2.1-0.5c0.7,0.4,0.9,1.4,0.5,2.1C76.1,60.3,74.5,62.8,70,62.8z"/>
	</g>
	<g>
		<path fill="#282828" d="M65.8,72.4c-0.4,0-0.9-0.2-1.2-0.6l-4.9-6.3c-0.5-0.7-0.4-1.6,0.3-2.1c0.7-0.5,1.6-0.4,2.1,0.3L67,70
			c0.5,0.7,0.4,1.6-0.3,2.1C66.5,72.3,66.1,72.4,65.8,72.4z"/>
	</g>
	<g>
		<path fill="#282828" d="M58.1,78.1c-0.8,0-1.5-0.7-1.5-1.5c0-2.4-1.3-6.1-1.8-7.3c-0.3-0.8,0.1-1.6,0.8-2c0.8-0.3,1.6,0.1,2,0.8
			c0.1,0.2,2,4.9,2,8.5C59.6,77.5,58.9,78.1,58.1,78.1z"/>
	</g>
	<g>
		<path fill="#282828" d="M49.5,79.1c-0.8,0-1.4-0.6-1.5-1.4c-0.2-2-2-6.7-2.7-8.3c-0.3-0.8,0-1.6,0.8-2s1.6,0,2,0.8
			c0.3,0.6,2.7,6.4,2.9,9.2c0.1,0.8-0.5,1.6-1.4,1.6C49.6,79.1,49.5,79.1,49.5,79.1z"/>
	</g>
</g>
</svg>
